<?xml version="1.0" encoding="UTF-8"?>
<CustomTab xmlns="http://soap.sforce.com/2006/04/metadata">
    <customObject>true</customObject>
    <description>As Installed Records based on As-Shipped/As-Installed Events</description>
    <mobileReady>false</mobileReady>
    <motif>Custom27: Laptop</motif>
</CustomTab>
